{
  "tracks": {
    "href": "https://api.spotify.com/v1/search?query=a+m+a+r+i&type=track&market=US&offset=0&limit=1",
    "items": [
      {
        "album": {
          "album_type": "album",
          "artists": [
            {
              "external_urls": {
                "spotify": "https://open.spotify.com/artist/6l3HvQ5sa6mXTsMTB19rO5"
              },
              "href": "https://api.spotify.com/v1/artists/6l3HvQ5sa6mXTsMTB19rO5",
              "id": "6l3HvQ5sa6mXTsMTB19rO5",
              "name": "J. Cole",
              "type": "artist",
              "uri": "spotify:artist:6l3HvQ5sa6mXTsMTB19rO5"
            }
          ],
          "external_urls": {
            "spotify": "https://open.spotify.com/album/4JAvwK4APPArjIsOdGoJXX"
          },
          "href": "https://api.spotify.com/v1/albums/4JAvwK4APPArjIsOdGoJXX",
          "id": "4JAvwK4APPArjIsOdGoJXX",
          "images": [
            {
              "height": 640,
              "url": "https://i.scdn.co/image/ab67616d0000b27310e6745bb2f179dd3616b85f",
              "width": 640
            },
            {
              "height": 300,
              "url": "https://i.scdn.co/image/ab67616d00001e0210e6745bb2f179dd3616b85f",
              "width": 300
            },
            {
              "height": 64,
              "url": "https://i.scdn.co/image/ab67616d0000485110e6745bb2f179dd3616b85f",
              "width": 64
            }
          ],
          "name": "The Off-Season",
          "release_date": "2021-05-14",
          "release_date_precision": "day",
          "total_tracks": 12,
          "type": "album",
          "uri": "spotify:album:4JAvwK4APPArjIsOdGoJXX"
        },
        "artists": [
          {
            "external_urls": {
              "spotify": "https://open.spotify.com/artist/6l3HvQ5sa6mXTsMTB19rO5"
            },
            "href": "https://api.spotify.com/v1/artists/6l3HvQ5sa6mXTsMTB19rO5",
            "id": "6l3HvQ5sa6mXTsMTB19rO5",
            "name": "J. Cole",
            "type": "artist",
            "uri": "spotify:artist:6l3HvQ5sa6mXTsMTB19rO5"
          }
        ],
        "disc_number": 1,
        "duration_ms": 148421,
        "explicit": true,
        "external_ids": {
          "isrc": "QMJMT2103632"
        },
        "external_urls": {
          "spotify": "https://open.spotify.com/track/2cnKST6T9qUo2i907lm8zX"
        },
        "href": "https://api.spotify.com/v1/tracks/2cnKST6T9qUo2i907lm8zX",
        "id": "2cnKST6T9qUo2i907lm8zX",
        "is_local": false,
        "is_playable": true,
        "name": "a m a r i",
        "popularity": 86,
        "preview_url": null,
        "track_number": 2,
        "type": "track",
        "uri": "spotify:track:2cnKST6T9qUo2i907lm8zX"
      }
    ],
    "limit": 1,
    "next": "https://api.spotify.com/v1/search?query=a+m+a+r+i&type=track&market=US&offset=1&limit=1",
    "offset": 0,
    "previous": null,
    "total": 298678
  }
}